480 = { #Hapsmu

    # Misc
    culture = irsmahapan
    religion = khetarchy
	holding = castle_holding

    # History
}

481 = { #Rasukes

    # Misc
    culture = irsmahapan
    religion = khetarchy
	holding = castle_holding

    # History
}

482 = { #Ka-Akah

    # Misc
    culture = irsmahapan
    religion = khetarchy
	holding = castle_holding

    # History
}

483 = { #Deshwimat

    # Misc
    culture = irsmahapan
    religion = khetarchy
	holding = castle_holding

    # History
}

484 = { #Sremeenu

    # Misc
    culture = irsmahapan
    religion = khetarchy
	holding = castle_holding

    # History
}

486 = { #Wibwimat

    # Misc
    culture = irsmahapan
    religion = khetarchy
	holding = castle_holding

    # History
}

487 = { #Awinxanrit

    # Misc
    culture = irsmahapan
    religion = khetarchy
	holding = castle_holding

    # History
}

5676 = { #Basben

    # Misc
    culture = irsmahapan
    religion = khetarchy
	holding = castle_holding

    # History
}

5478 = { #Hortos

    # Misc
    culture = irsmahapan
    religion = khetarchy
	holding = castle_holding

    # History

}

5479 = { #Rasuribat

    # Misc
    culture = irsmahapan
    religion = khetarchy
	holding = castle_holding

    # History

}

5480 = { #Tamoton

    # Misc
    culture = irsmahapan
    religion = khetarchy
	holding = castle_holding

    # History

}
6090 = { #Hapmosdet

    # Misc
    culture = irsmahapan
    religion = khetarchy
	holding = castle_holding

    # History
}